id,name,model_id:id,group_id:id,perm_read,perm_write,perm_create,perm_unlink
account_analytic_account_portal,account.analytic.account,analytic.model_account_analytic_account,base.group_portal,1,0,0,0
hr_analytic_timesheet_portal,hr.analytic.timesheet.portal,hr_timesheet_sheet.model_hr_analytic_timesheet,base.group_portal,1,0,0,0
account_analytic_line_portal,account.analytic.line.portal,account.model_account_analytic_line,base.group_portal,1,0,0,0
access_res_groups_group_portal","res_groups group_portal","base.model_res_groups",base.group_portal,1,0,0,0
access_resource_calendar_attendance,resource.calendar.attendance,resource.model_resource_calendar_attendance,base.group_user,1,0,0,0
